[
    {
        "database": "postgres",
        "index": "holder",
        "nodes": {
            "table": "holder",
            "schema": "public",
            "columns": [],
            "transform": {
                "mapping": {
                    "id": {
                        "type": "long"
                    },
                    "name": {
                        "type": "keyword"
                    },
                    "phone": {
                        "type": "keyword"
                    }
                }
            },
            "children": [
                {
                    "table": "storage_cell",
                    "schema": "public",
                    "columns": [],
                    "transform": {
                        "mapping": {
                            "id": {
                                "type": "long"
                            },
                            "code": {
                                "type": "keyword"
                            },
                            "capacity": {
                                "type": "long"
                            }
                        }
                    },
                    "relationship": {
                        "variant": "object",
                        "type": "one_to_many"
                    }
                },
                {
                    "table": "equipment",
                    "schema": "public",
                    "columns": [],
                    "transform": {
                        "mapping": {
                            "id": {
                                "type": "long"
                            },
                            "title": {
                                "type": "keyword"
                            },
                            "color": {
                                "type": "keyword"
                            }
                        }
                    },
                    "relationship": {
                        "variant": "object",
                        "type": "one_to_many",
                        "through_tables": ["equipment_to_holder"]
                    }
                }
            ]
        }
    },
    {
        "database": "postgres",
        "index": "equipment",
        "nodes": {
            "table": "equipment",
            "schema": "public",
            "columns": [],
            "transform": {
                "mapping": {
                    "id": {
                        "type": "long"
                    },
                    "title": {
                        "type": "keyword"
                    },
                    "color": {
                        "type": "keyword"
                    }
                }
            },
            "children": [
                {
                    "table": "holder",
                    "schema": "public",
                    "columns": [],
                    "transform": {
                        "mapping": {
                            "id": {
                                "type": "long"
                            },
                            "name": {
                                "type": "keyword"
                            },
                            "phone": {
                                "type": "keyword"
                            }
                        }
                    },
                    "relationship": {
                        "variant": "object",
                        "type": "one_to_many",
                        "through_tables": ["equipment_to_holder"]
                    }
                }
            ]
        }
    }
]
